Chapitre 3 Manipuler les données avec dplyr | Introduction à R
…
3.2.4 Quelques exercices

Exercice 3.3  (Dplyr sur les iris de Fisher)  

On considère le jeu de données iris

> iris <- iris %>% as_tibble()

Répondre aux questions suivantes en utilisant les verbes dplyr et l’opérateur %>%.

Sélectionner les variables Petal.Width et Species.

> iris %>% select(Petal.Width,Species)
# A tibble: 150 x 2
   Petal.Width Species
         <dbl> <fct>  
 1         0.2 setosa 
 2         0.2 setosa 
 3         0.2 setosa 
 4         0.2 setosa 
 5         0.2 setosa 
 6         0.4 setosa 
 7         0.3 setosa 
 8         0.2 setosa 
 9         0.2 setosa 
10         0.1 setosa 
# … with 140 more rows

Construire une table qui contient uniquement les iris d’espèce versicolor ou virginica (on pourra utiliser le symbole | pour la condition ou).

> iris %>% filter(Species=="versicolor" | Species=="virginica")
# A tibble: 100 x 6
   Sepal.Length Sepal.Width Petal.Length Petal.Width Species    sum.petal
          <dbl>       <dbl>        <dbl>       <dbl> <fct>          <dbl>
 1          7           3.2          4.7         1.4 versicolor      6.1 
 2          6.4         3.2          4.5         1.5 versicolor      6   
 3          6.9         3.1          4.9         1.5 versicolor      6.4 
 4          5.5         2.3          4           1.3 versicolor      5.3 
 5          6.5         2.8          4.6         1.5 versicolor      6.1 
 6          5.7         2.8          4.5         1.3 versicolor      5.8 
 7          6.3         3.3          4.7         1.6 versicolor      6.3 
 8          4.9         2.4          3.3         1   versicolor      4.3 
 9          6.6         2.9          4.6         1.3 versicolor      5.90
10          5.2         2.7          3.9         1.4 versicolor      5.3 
# … with 90 more rows
…
Calculer la moyenne de la variable Petal Width pour les iris de l’espèce versicolor.

> iris %>% filter(Species=="versicolor") %>%
+   summarise(Mean_PW=mean(Petal.Width))
# A tibble: 1 x 1
  Mean_PW
    <dbl>
1    1.33

Ajouter dans le jeu de données la variable Sum_Petal qui correspond à la somme de Petal.Width et Sepal.Width.

> iris1 <- iris
> iris1 %>% mutate(Sum_Petal=Petal.Width+Sepal.Width)
# A tibble: 150 x 7
   Sepal.Length Sepal.Width Petal.Length Petal.Width Species sum.petal Sum_Petal
          <dbl>       <dbl>        <dbl>       <dbl> <fct>       <dbl>     <dbl>
 1          5.1         3.5          1.4         0.2 setosa       1.60       3.7
 2          4.9         3            1.4         0.2 setosa       1.60       3.2
 3          4.7         3.2          1.3         0.2 setosa       1.5        3.4
 4          4.6         3.1          1.5         0.2 setosa       1.7        3.3
 5          5           3.6          1.4         0.2 setosa       1.60       3.8
 6          5.4         3.9          1.7         0.4 setosa       2.1        4.3
 7          4.6         3.4          1.4         0.3 setosa       1.7        3.7
 8          5           3.4          1.5         0.2 setosa       1.7        3.6
 9          4.4         2.9          1.4         0.2 setosa       1.60       3.1
10          4.9         3.1          1.5         0.1 setosa       1.6        3.2
# … with 140 more rows
…
On effectue maintenant les changements dans la table pour obtenir une nouvelle version de hflights :

> hflights1 <- hflights
> hflights1$UniqueCarrier <- lut1[hflights1$UniqueCarrier]
> hflights1$CancellationCode[hflights1$CancellationCode==""] <- "Z"
> hflights1$CancellationCode <- lut2[hflights1$CancellationCode]

A partir de maintenant, on travaille avec hflights1.

Sélectionner les variables qui se situent entre Origin et Cancelled de différentes façons.

> ind <- match(c("Origin","Cancelled"),names(hflights1))
> hflights1 %>% select(seq(ind[1],ind[2]))
# A tibble: 227,496 x 6
   Origin Dest  Distance TaxiIn TaxiOut Cancelled
   <chr>  <chr>    <int>  <int>   <int>     <int>
 1 IAH    DFW        224      7      13         0
 2 IAH    DFW        224      6       9         0
 3 IAH    DFW        224      5      17         0
 4 IAH    DFW        224      9      22         0
 5 IAH    DFW        224      9       9         0
 6 IAH    DFW        224      6      13         0
 7 IAH    DFW        224     12      15         0
 8 IAH    DFW        224      7      12         0
 9 IAH    DFW        224      8      22         0
10 IAH    DFW        224      6      19         0
# … with 227,486 more rows
> #ou
> hflights1 %>% select(Origin:Cancelled) 
# A tibble: 227,496 x 6
   Origin Dest  Distance TaxiIn TaxiOut Cancelled
   <chr>  <chr>    <int>  <int>   <int>     <int>
 1 IAH    DFW        224      7      13         0
 2 IAH    DFW        224      6       9         0
 3 IAH    DFW        224      5      17         0
 4 IAH    DFW        224      9      22         0
 5 IAH    DFW        224      9       9         0
 6 IAH    DFW        224      6      13         0
 7 IAH    DFW        224     12      15         0
 8 IAH    DFW        224      7      12         0
 9 IAH    DFW        224      8      22         0
10 IAH    DFW        224      6      19         0
# … with 227,486 more rows

Sélectionner les variables DepTime, ArrTime, ActualElapsedTime, AirTime, ArrDelay and DepDelay. On pourra remarquer que toutes ces variables contiennent les chaines de caractère Time et Delay et utiliser la helper function contains().

> hflights1 %>% select(contains("Time"),contains("Delay"))
# A tibble: 227,496 x 6
   DepTime ArrTime ActualElapsedTime AirTime ArrDelay DepDelay
     <int>   <int>             <int>   <int>    <int>    <int>
 1    1400    1500                60      40      -10        0
 2    1401    1501                60      45       -9        1
 3    1352    1502                70      48       -8       -8
 4    1403    1513                70      39        3        3
 5    1405    1507                62      44       -3        5
 6    1359    1503                64      45       -7       -1
 7    1359    1509                70      43       -1       -1
 8    1355    1454                59      40      -16       -5
 9    1443    1554                71      41       44       43
10    1443    1553                70      45       43       43
# … with 227,486 more rows
…
Ajouter la variable AverageSpeed (=Distance/AirTime) et ordonner la table selon les valeurs décroissantes de cette variable.

> hflights3 <- hflights2 %>% 
+   mutate(AverageSpeed=Distance/AirTime) %>%
+   arrange(desc(AverageSpeed))

Sélectionner les vols à destination de JFK.

> filter(hflights3,Dest=="JFK")
# A tibble: 695 x 23
    Year Month DayofMonth DayOfWeek DepTime ArrTime UniqueCarrier FlightNum
   <int> <int>      <int>     <int>   <int>   <int> <chr>             <int>
 1  2011     2          7         1     659    1045 JetBlue             620
 2  2011     2          6         7     700    1045 JetBlue             620
 3  2011     2          5         6     700    1113 JetBlue             620
 4  2011     2          6         7    1529    1917 JetBlue             624
 5  2011     1         24         1     707    1059 JetBlue             620
 6  2011     1         24         1    1532    1923 JetBlue             624
 7  2011     2         12         6     659    1105 JetBlue             620
 8  2011    10         19         3     644    1043 JetBlue             620
 9  2011    11         10         4    1629    2027 JetBlue             622
10  2011     2          8         2     654    1049 JetBlue             620
# … with 685 more rows, and 15 more variables: TailNum <chr>,
#   ActualElapsedTime <int>, AirTime <int>, ArrDelay <int>, DepDelay <int>,
#   Origin <chr>, Dest <chr>, Distance <int>, TaxiIn <int>, TaxiOut <int>,
#   Cancelled <int>, CancellationCode <chr>, Diverted <int>,
#   ActualGroundTime <int>, AverageSpeed <dbl>
…
Exercice 3.5  (Tournois du grand chelemn au tennis)  

On considère le données sur les résultats de tennis dans les tournois du grand chelem en 2013. Les données, ainsi que le descriptif des variables, se trouvent à l’adresse https://archive.ics.uci.edu/ml/datasets/Tennis+Major+Tournament+Match+Statistics.

On s’intéresse d’abord au tournoi masculin de Roland Garros. On répondra aux questions à l’aide des verbes dplyr.

Importer les données.

> FrenchOpen_men_2013 <- read_csv("data/FrenchOpen-men-2013.csv")
> RG2013 <- FrenchOpen_men_2013
> RG2013
# A tibble: 125 x 42
   Player1 Player2 Round Result FNL.1 FNL.2 FSP.1 FSW.1 SSP.1 SSW.1 ACE.1 DBF.1
   <chr>   <chr>   <dbl>  <dbl> <dbl> <dbl> <dbl> <dbl> <dbl> <dbl> <dbl> <dbl>
 1 Pablo … Roger …     1      0     0     3    62    27    38    11     1     3
 2 Somdev… Daniel…     1      1     3     0    62    54    38    22     7     3
 3 Tobias… Paolo …     1      1     3     2    62    53    38    15     4     6
 4 Julien… Ricard…     1      1     3     1    72    87    28    19    14     2
 5 Lukas … Sam Qu…     1      0     0     3    52    31    48    22     4     4
 6 Jan Ha… Denis …     1      1     3     1    70    58    30    18     4     4
 7 Adrian… Pablo …     1      0     2     3    63    71    37    38     5     5
 8 Gilles… Lleyto…     1      1     3     2    59    42    41    25     7     2
 9 Philip… Marin …     1      0     0     3    56    27    44    13     0     6
10 Radek … Nick K…     1      0     0     3    63    62    37    29     5     4
# … with 115 more rows, and 30 more variables: WNR.1 <dbl>, UFE.1 <dbl>,
#   BPC.1 <dbl>, BPW.1 <dbl>, NPA.1 <dbl>, NPW.1 <dbl>, TPW.1 <dbl>,
#   ST1.1 <dbl>, ST2.1 <dbl>, ST3.1 <dbl>, ST4.1 <dbl>, ST5.1 <dbl>,
#   FSP.2 <dbl>, FSW.2 <dbl>, SSP.2 <dbl>, SSW.2 <dbl>, ACE.2 <dbl>,
#   DBF.2 <dbl>, WNR.2 <dbl>, UFE.2 <dbl>, BPC.2 <dbl>, BPW.2 <dbl>,
#   NPA.2 <dbl>, NPW.2 <dbl>, TPW.2 <dbl>, ST1.2 <dbl>, ST2.2 <dbl>,
#   ST3.2 <dbl>, ST4.2 <dbl>, ST5.2 <dbl>
…
Combien y a t-il eu de doubles fautes au total dans le tournoi (attention aux données manquantes, taper help(sum) pour voir comment les gérer) ?

> RG2013 %>% mutate(nb_df=DBF.1+DBF.2) %>% 
+   summarize(nb_dbfaults=sum(nb_df,na.rm=TRUE))
# A tibble: 1 x 1
  nb_dbfaults
        <dbl>
1         812

Importer les données pour le tournoi masculin de Wimbledon 2013.

> WIMB2013 <- read_csv("data/Wimbledon-men-2013.csv")
> WIMB2013
# A tibble: 114 x 42
   Player1 Player2 Round Result FNL.1 FNL.2 FSP.1 FSW.1 SSP.1 SSW.1 ACE.1 DBF.1
   <chr>   <chr>   <dbl>  <dbl> <dbl> <dbl> <dbl> <dbl> <dbl> <dbl> <dbl> <dbl>
 1 B.Beck… A.Murr…     1      0     0     3    59    29    41    14     5     1
 2 J.Ward  Y-H.Lu      1      0     1     3    62    77    38    35    18     4
 3 N.Mahut J.Hajek     1      1     3     0    72    44    28    10    17     3
 4 T.Robr… A.Bogo…     1      1     3     0    77    40    23    12     6     0
 5 R.Haase M.Youz…     1      0     0     3    68    61    32    15     7     2
 6 M.Gicq… V.Posp…     1      0     0     3    59    41    41    27     7     6
 7 A.Kuzn… A.Mont…     1      1     3     1    63    56    37    21    21     3
 8 J.Tips… V.Troi…     1      0     0     3    61    47    39    21     3     1
 9 M.Bagh… M.Cilic     1      0     0     3    61    31    39    16     4     5
10 K.De S… P.Lore…     1      1     3     0    67    56    33    21    22     6
# … with 104 more rows, and 30 more variables: WNR.1 <dbl>, UFE.1 <dbl>,
#   BPC.1 <dbl>, BPW.1 <dbl>, NPA.1 <dbl>, NPW.1 <dbl>, TPW.1 <lgl>,
#   ST1.1 <dbl>, ST2.1 <dbl>, ST3.1 <dbl>, ST4.1 <dbl>, ST5.1 <dbl>,
#   FSP.2 <dbl>, FSW.2 <dbl>, SSP.2 <dbl>, SSW.2 <dbl>, ACE.2 <dbl>,
#   DBF.2 <dbl>, WNR.2 <dbl>, UFE.2 <dbl>, BPC.2 <dbl>, BPW.2 <dbl>,
#   NPA.2 <dbl>, NPW.2 <dbl>, TPW.2 <lgl>, ST1.2 <dbl>, ST2.2 <dbl>,
#   ST3.2 <dbl>, ST4.2 <dbl>, ST5.2 <dbl>
…
3.2.5 Compléments : Tidy data avec tidyr

L’utilisation de dplyr et de ggplot (que nous verrons dans la partie suivante) suppose que les données sont présentées sous un format adéquat : une ligne est un individu et une colonne une variable, on parle alors de tidy data. Cela n’est pas toujours le cas en pratique, considérons par exemple le tableau suivant qui presente les taux de chômage des départements français en 2002, 2006, 2011

> df <- read_delim("data/tauxchomage.csv",delim=";") %>% select(-1)
> df
# A tibble: 96 x 4
   NOM_DPT                 TCHOMB1T01 TCHOMB1T06 TCHOMB1T11
   <chr>                        <dbl>      <dbl>      <dbl>
 1 Ain                            3.9        5.9        6.6
 2 Aisne                         10.6       12         13.2
 3 Allier                         9          9.2        9.7
 4 Alpes-de-Haute-Provence        9.5        9.7       10.3
 5 Hautes-Alpes                   7.1        7.7        8.3
 6 Alpes-Maritimes                9.1        8.9        9.2
 7 Ardèche                        8.1        9.6        9.7
 8 Ardennes                      11.5       12.8       10.9
 9 Ariège                         9.2       10.1       10.6
10 Aube                           8.2       10         10  
# … with 86 more rows

Ce tableau n’est pas tidy dans le sens où les variables mesurées sont

le département

l’année

le taux de chômage

Nous verrons qu’il n’est par exemple pas possible de faire un boxplot permettant de visualiser la distribution du taux de chômage en fonction de l’année à l’aide de ggplot2. Pour passer au format tidy il faut assembler les 3 colonnes correspondant aux taux de chômage en une seule colonne et ajouter une colonne qui permette d’identifier l’année. La fonction pivot_longer du package tidyr permet de faire cela :

> df1 <- df %>% pivot_longer(-NOM_DPT,names_to="Année",values_to="TCHOM") %>% 
+   mutate(Année=fct_recode(Année,"2001"="TCHOMB1T01","2006"="TCHOMB1T06","2011"="TCHOMB1T11"))
> df1
# A tibble: 288 x 3
   NOM_DPT                 Année TCHOM
   <chr>                   <fct> <dbl>
 1 Ain                     2001    3.9
 2 Ain                     2006    5.9
 3 Ain                     2011    6.6
 4 Aisne                   2001   10.6
 5 Aisne                   2006   12  
 6 Aisne                   2011   13.2
 7 Allier                  2001    9  
 8 Allier                  2006    9.2
 9 Allier                  2011    9.7
10 Alpes-de-Haute-Provence 2001    9.5
# … with 278 more rows
…
L’opération inverse peut être effectuée avec pivot_wider :

> df1 %>% pivot_wider(names_from="Année",values_from="TCHOM")
# A tibble: 96 x 4
   NOM_DPT                 `2001` `2006` `2011`
   <chr>                    <dbl>  <dbl>  <dbl>
 1 Ain                        3.9    5.9    6.6
 2 Aisne                     10.6   12     13.2
 3 Allier                     9      9.2    9.7
 4 Alpes-de-Haute-Provence    9.5    9.7   10.3
 5 Hautes-Alpes               7.1    7.7    8.3
 6 Alpes-Maritimes            9.1    8.9    9.2
 7 Ardèche                    8.1    9.6    9.7
 8 Ardennes                  11.5   12.8   10.9
 9 Ariège                     9.2   10.1   10.6
10 Aube                       8.2   10     10  
# … with 86 more rows
…
